<?xml version="1.0" encoding="UTF-8"?>
<session version="1.0">
<refactoring comment="Delete resource &apos;Cmake test&apos;" deleteContents="true" description="Delete resource &apos;Cmake test&apos;" element1="/Cmake test" flags="7" id="org.eclipse.ltk.core.refactoring.delete.resources" resources="1" stamp="1474915658321"/>
</session>