Tl_x_cFTLD	Tl_y_cFTLD	w_cFTLD	h_cFTLD	Tl_x_CMT	Tl_y_CMT	w_CMT	h_CMT	Tl_x_ST	Tl_y_ST	w_ST	h_ST	Tl_x	Tl_y	w	h	cFTLD_cov	CMT_cov	STRUCK_cov
378	232	171	163	380	233	174	166	379	233	174	166	379	233	173	165	10.0006	10.0562	10.0067
378	232	171	163	380	233	174	166	379	232	175	167	379	233	173	165	10.0006	10.0533	10.0068
378	232	171	163	379	233	174	165	379	232	175	167	379	233	173	165	10.0005	10.0913	10.0063
378	233	171	163	379	232	174	166	379	232	175	167	379	233	173	165	10.0005	10.1393	10.006
379	233	172	164	379	232	174	166	379	232	175	167	379	232	173	165	10.0021	10.0947	10.0057
379	233	172	164	379	232	174	166	380	232	175	167	379	232	173	165	10.0009	10.0785	10.0069
379	231	172	164	379	232	174	166	379	232	175	167	379	232	173	165	10.0605	10.0777	10.0062
378	230	172	164	378	231	175	166	378	231	175	167	379	231	173	165	10.0116	10.595	10.0107
377	228	172	164	377	229	174	166	376	228	175	167	378	229	173	165	10.064	11.4608	10.0155
372	224	172	164	376	228	174	166	375	226	175	167	376	227	173	165	12.0746	10.8341	10.0087
365	223	172	164	374	226	173	165	371	224	175	167	373	225	173	164	19.9629	19.2533	10.0182
361	222	172	164	370	225	173	164	364	222	175	167	366	223	172	164	10.0322	211.428	10.3114
355	222	170	162	363	224	172	163	354	220	175	167	359	221	171	163	19.5279	797.899	10.5311
340	222	168	161	356	223	171	163	344	219	175	167	349	221	169	162	13.2704	796.162	10.1498
332	221	167	160	347	222	170	162	335	218	175	167	338	220	168	161	10.0516	661.803	10.0506
328	221	167	160	339	222	169	161	327	217	175	167	329	220	167	160	11.219	154.738	10.0369
325	221	167	160	326	221	168	160	322	218	175	167	324	220	167	160	13.8745	10.2192	10.0472
322	221	167	160	322	221	168	160	318	217	175	167	320	221	167	160	12.0768	11.3177	10.0595
317	221	167	160	318	221	167	160	313	217	175	167	316	221	167	160	10.0043	10.2985	10.0337
313	220	167	160	313	220	167	160	308	216	175	167	313	220	167	160	10.0022	10.2573	10.0359
310	220	167	160	309	220	167	159	308	216	175	167	310	220	167	160	10.0091	10.5885	10.0329
305	219	167	160	306	220	167	159	304	216	175	167	306	219	167	160	10.0778	13.7006	10.0331
304	219	167	160	304	220	166	159	301	216	175	167	303	219	167	160	10.942	12.7457	10.0315
301	218	168	161	301	219	166	159	297	215	175	167	301	219	167	160	10.001	10.4393	10.0301
296	217	168	161	294	218	165	158	293	214	175	167	296	218	167	159	14.6718	10.1795	10.029
293	216	168	161	294	218	165	158	289	213	175	167	293	217	166	159	10.0009	10.1795	10.0295
289	216	166	159	292	217	165	158	284	212	175	167	290	216	166	159	11.6031	11.1329	10.0451
285	216	165	157	288	217	165	158	280	211	175	167	286	216	165	158	10.0485	10.2049	10.062
275	215	164	156	283	217	165	158	274	211	175	167	280	215	165	157	10.0076	10.5696	10.0737
272	214	164	156	279	216	165	157	269	210	175	167	275	215	164	157	10.1813	10.2936	10.0758
270	214	164	156	274	216	165	157	265	209	175	167	271	215	164	156	10.0872	10.0958	10.0766
267	213	164	156	271	215	165	157	262	209	175	167	268	214	164	156	10.0237	10.1372	10.0747
266	213	164	156	268	214	165	157	261	208	175	167	265	213	164	156	10.5335	10.8763	10.0759
264	212	164	156	266	214	165	158	260	208	175	167	264	213	164	157	10.0626	12.3225	10.0694
264	212	164	156	264	213	165	158	259	207	175	167	263	212	165	157	10.203	13.1861	10.065
263	211	164	156	263	213	165	157	259	207	175	167	263	212	165	157	10.0378	13.3735	10.0681
263	211	164	156	263	212	165	157	259	206	175	167	263	211	165	157	10.0088	15.0283	10.0658
263	211	164	156	263	212	165	157	258	206	175	167	263	211	165	157	10.013	12.6894	10.0665
262	210	165	157	262	212	165	157	258	205	175	167	262	211	165	157	10.0007	11.381	10.0648
258	209	165	157	262	211	165	157	257	205	175	167	261	210	165	157	10.293	10.7151	10.063
256	208	166	158	260	211	165	157	254	205	175	167	259	210	165	157	10.9771	10.11	10.0567
253	209	165	158	258	211	165	157	250	205	175	167	256	209	165	157	10.2938	10.6996	10.0694
249	209	165	157	254	211	165	157	245	205	175	167	252	209	165	157	10.8567	11.6473	10.0683
246	209	165	157	251	211	165	157	241	205	175	167	248	210	165	157	10.0187	11.0779	10.0701
243	210	165	157	248	211	164	157	241	205	175	167	245	210	165	157	10.0041	10.3097	10.0795
240	209	165	157	246	211	164	157	238	205	175	167	242	210	164	157	10.0014	10.0993	10.081
238	209	164	156	243	211	164	156	234	205	175	167	240	210	164	156	10.0116	10.074	10.0793
237	209	164	156	241	210	164	156	232	204	175	167	238	210	164	156	10.0429	10.1279	10.0809
236	208	164	156	240	210	164	156	230	203	175	167	236	209	164	156	10.0333	10.2159	10.0819
234	208	164	156	238	210	164	156	230	203	175	167	235	209	164	156	10.0042	10.315	10.0825
234	208	164	156	237	209	164	157	230	202	175	167	235	208	164	156	10.0205	10.9373	10.0816
234	208	164	156	237	209	164	157	229	202	175	167	234	208	164	156	10.0294	10.9373	10.08
234	207	164	156	237	209	164	157	229	202	175	167	234	208	164	157	10.0216	10.5108	10.0798
233	207	164	156	237	209	164	157	228	202	175	167	234	207	164	157	10.0022	10.6281	10.0779
233	206	164	156	236	208	164	157	228	201	175	167	234	207	164	157	10.0015	10.294	10.0771
233	206	164	156	236	208	164	157	228	201	175	167	234	207	164	157	10.0011	10.3438	10.0775
232	206	165	157	236	208	164	157	228	201	175	167	234	207	164	157	10.0009	10.1619	10.0776
231	206	165	157	235	207	164	157	227	201	175	167	233	206	164	157	10.0062	10.1081	10.0774
230	205	165	157	234	207	164	157	225	200	175	167	232	206	164	157	10.0031	10.0799	10.0787
228	205	165	157	234	207	164	157	224	200	175	167	231	205	164	157	10.0015	10.0988	10.0775
227	205	165	157	233	206	164	157	222	199	175	167	229	205	164	157	10.0011	10.0745	10.077
226	205	165	157	232	206	164	157	222	199	175	167	228	205	164	157	10.001	10.0591	10.0776
226	205	165	157	231	206	164	157	221	199	175	167	228	205	165	157	10.001	10.1715	10.0777
225	205	165	157	231	206	165	157	221	199	175	167	227	205	165	157	10.0022	10.168	10.0785
225	204	165	157	231	206	164	157	221	199	175	167	227	204	164	157	10.0048	10.17	10.0783
224	204	165	157	230	205	164	157	221	199	175	167	227	204	164	157	10.0028	10.0872	10.0781
223	203	165	157	230	205	164	157	219	198	175	167	226	204	164	157	10.001	10.0976	10.0782
223	203	165	157	229	205	164	157	219	198	175	167	225	204	164	157	10.001	10.0893	10.0782
222	203	165	157	229	205	164	157	218	198	175	167	225	204	164	157	10.0038	10.0893	10.0774
220	202	164	156	228	205	164	157	216	198	175	167	224	203	164	157	10.0016	10.1127	10.0778
219	202	164	156	226	204	164	157	215	197	175	167	222	203	164	157	10.0007	10.1834	10.0775
218	202	164	156	225	204	164	157	214	197	175	167	221	202	164	157	10.001	10.1353	10.0772
217	201	164	156	224	203	164	157	213	197	175	167	220	202	164	157	10.0009	10.1192	10.0775
216	201	164	156	223	203	164	157	212	197	175	167	218	202	164	157	10.0007	10.0605	10.0778
214	201	164	156	222	203	165	157	211	196	175	167	217	202	165	157	10.0017	10.1013	10.0782
214	201	164	156	221	202	165	157	210	196	175	167	216	201	165	157	10.002	10.0767	10.0777
213	200	164	156	220	202	165	157	210	196	175	167	216	201	165	157	10.0013	10.0786	10.0796
212	200	164	156	218	198	165	157	209	196	175	167	214	200	165	157	10.0007	80.0816	10.0796
211	199	164	156	217	195	164	157	207	196	175	167	213	199	164	157	10.0013	19.6771	10.0794
210	199	164	157	215	193	164	157	206	196	175	167	212	198	164	157	10.0005	10.5875	10.0793
209	199	165	157	214	191	164	157	205	196	175	167	211	197	164	157	10.0022	10.1112	10.08
209	199	165	157	213	189	164	156	205	195	175	167	210	196	164	156	10.0012	10.0947	10.079
208	199	165	157	212	188	164	156	204	196	175	167	210	195	164	156	10.0011	10.1657	10.0793
208	199	165	157	211	187	163	156	204	196	175	167	209	195	164	156	10.0018	10.4035	10.0798
207	199	165	157	211	186	163	156	204	196	175	167	209	195	164	156	10.0008	10.2654	10.0806
206	199	165	157	210	186	163	156	202	196	175	167	208	195	164	156	10.0009	10.3302	10.0801
205	198	165	157	209	186	163	156	201	195	175	167	207	195	164	156	10.0019	10.3863	10.0799
204	198	165	157	209	186	163	156	201	196	175	167	206	195	164	156	10.0011	10.4154	10.0816
204	198	165	157	208	186	163	155	200	195	175	167	206	195	164	156	10.0011	10.2325	10.0807
203	198	165	157	207	186	163	156	200	195	175	167	205	195	164	156	10.0006	10.2877	10.0822
203	198	164	156	207	187	163	155	199	195	175	167	205	195	164	156	10.0042	10.4447	10.0796
202	198	164	156	207	187	163	155	199	195	175	167	204	195	164	156	10.0008	10.1371	10.0802
201	198	164	156	206	186	163	156	199	195	175	167	204	195	164	156	10.0028	10.1126	10.0833
200	198	164	156	205	186	163	156	197	195	175	167	203	195	164	156	10.0014	10.1282	10.0823
199	197	164	156	205	186	163	156	196	195	175	167	202	194	164	156	10.0015	10.0783	10.0827
199	197	164	156	204	186	163	156	195	195	175	167	201	194	164	156	10.0011	10.1126	10.0823
198	197	164	156	203	185	163	156	195	195	175	167	201	194	164	156	10.0006	10.0857	10.0843
197	197	164	156	203	185	163	156	194	195	175	167	200	194	164	156	10.0008	10.1174	10.084
196	197	165	156	203	186	162	155	193	195	175	167	199	194	163	156	10.0009	10.433	10.0839
196	197	165	157	203	186	162	155	192	195	175	167	199	194	163	156	10.0013	10.433	10.083
195	196	165	157	202	186	162	155	191	195	175	167	198	194	163	156	10.0015	10.0762	10.0843
194	196	165	157	201	185	162	155	190	195	175	167	197	194	163	156	10.0008	10.1409	10.0854
194	196	165	157	200	185	162	155	190	195	175	167	196	194	163	156	10.0012	10.1548	10.0868
193	196	165	157	200	185	162	155	189	195	175	167	196	194	163	156	10.0022	10.1487	10.0873
193	196	165	157	200	184	162	155	189	195	175	167	196	194	163	156	10.0008	10.0959	10.0869
192	196	165	157	199	184	162	155	188	194	175	167	195	193	163	156	10.001	10.0561	10.0848
192	196	165	157	199	184	162	154	187	194	175	167	195	193	163	156	10.0009	10.1006	10.0828
191	196	165	157	198	184	161	154	187	194	175	167	194	193	163	155	10.0008	10.1968	10.0844
190	195	164	157	198	184	161	154	187	194	175	167	194	193	163	155	10.0022	10.1558	10.0872
189	195	164	157	198	184	160	153	186	194	175	167	193	193	163	155	10.0014	10.083	10.0874
189	195	164	156	198	184	160	153	185	194	175	167	193	193	162	155	10.0059	10.083	10.0865
189	194	164	156	197	183	161	154	185	193	175	167	192	192	163	155	10.0067	10.6969	10.0859
189	194	164	156	198	182	161	153	185	192	175	167	192	191	163	155	10.0067	10.4624	10.0828
190	193	164	156	199	181	161	154	187	190	175	167	193	191	163	155	10.0167	12.4395	10.0971
192	192	164	156	200	179	162	155	187	190	175	167	194	190	163	155	11.2097	12.0421	10.0974
193	190	164	156	201	178	162	155	190	189	175	167	196	188	163	156	10.0041	10.2388	10.0882
194	189	164	156	201	177	162	154	190	189	175	167	197	187	163	156	10.0011	10.1678	10.0888
195	189	165	156	202	176	162	154	190	189	175	167	198	186	163	156	10.0013	10.18	10.0921
196	188	165	156	203	175	161	154	190	187	175	167	199	185	163	155	10.0068	10.1889	10.0868
198	188	165	156	203	175	161	154	193	186	175	167	200	185	163	155	10.0016	10.1889	10.0855
199	187	165	157	205	175	161	154	194	185	175	167	201	184	163	155	10.0066	10.743	10.0837
201	186	165	157	208	173	161	154	194	185	175	167	203	184	163	155	10.0044	11.2171	10.0887
202	185	165	157	209	172	161	154	196	185	175	167	204	183	163	155	10.0054	10.1329	10.0886
202	184	165	157	209	171	161	154	197	183	175	167	205	181	163	155	10.0113	10.2918	10.0895
202	183	165	157	210	169	161	154	196	182	175	167	205	180	163	155	10.011	10.179	10.0878
202	183	165	157	210	169	161	154	196	182	175	167	205	179	163	155	10.0083	10.1567	10.086
202	181	165	157	211	167	161	154	197	180	175	167	205	178	163	155	10.0019	10.1426	10.0852
203	181	164	157	212	166	162	154	197	180	175	167	206	177	163	155	10.0012	10.1273	10.089
204	180	164	157	212	166	162	154	198	180	175	167	206	177	163	155	10.0311	10.1272	10.0913
207	179	164	157	213	165	161	154	200	178	175	167	208	176	163	155	10.0387	10.153	10.0949
209	178	164	157	215	163	162	154	203	177	175	167	210	175	163	155	10.0155	10.7659	10.0913
211	177	164	156	217	162	162	155	206	176	175	167	212	174	163	156	10.0067	11.0019	10.0865
213	176	164	156	219	161	162	155	208	175	175	167	215	173	163	156	10.003	10.3341	10.0856
217	175	164	156	223	158	163	156	210	174	175	167	218	171	164	156	10.0068	10.1209	10.0898
217	175	164	156	223	158	163	156	210	174	175	167	219	170	164	156	10.0068	10.1209	10.0898
218	174	165	156	224	157	163	156	210	174	175	167	220	170	164	156	10.0524	10.2051	10.0961
217	174	165	156	224	157	164	156	210	174	175	167	220	170	164	156	10.0334	10.7718	10.0921
217	174	165	156	224	157	164	156	210	174	175	167	219	170	164	157	10.0147	11.648	10.0908
217	175	165	156	224	157	163	157	210	174	175	167	219	170	164	157	10.0059	10.8455	10.0922
216	175	165	157	224	157	164	157	210	174	175	167	219	170	164	157	10.0107	10.6262	10.0883
216	175	165	157	223	157	163	156	209	174	175	167	218	170	164	157	10.0023	11.0551	10.0883
215	174	165	157	223	156	163	157	208	173	175	167	217	170	164	157	10.0019	10.3819	10.0873
215	173	165	157	222	155	164	157	208	172	175	167	217	169	164	157	10.0162	10.5533	10.0876
215	172	165	157	221	154	164	157	208	172	175	167	216	168	164	157	10.0079	10.2793	10.0939
215	172	164	157	220	154	165	157	208	171	175	167	216	167	164	157	10.0015	10.1715	10.0905
215	171	164	157	219	153	165	158	207	171	175	167	215	167	165	157	10.0008	10.0973	10.0933
215	171	164	157	219	153	165	158	207	171	175	167	215	166	165	157	10.0012	10.0827	10.0955
215	171	164	157	219	153	165	158	207	171	175	167	215	166	165	157	10.0017	10.0827	10.0965
215	171	164	157	218	152	166	158	207	171	175	167	215	166	165	157	10.0075	10.0707	10.0933
215	171	164	156	218	152	166	158	208	171	175	167	215	166	165	157	10.0007	10.0718	10.0933
215	171	164	156	218	151	166	159	208	171	175	167	215	166	165	158	10.0007	10.0871	10.0931
215	171	165	156	218	151	166	159	208	171	175	167	215	166	165	158	10.0007	10.0921	10.0932
216	170	165	156	218	151	167	159	210	170	175	167	216	166	166	158	10.0487	10.4671	10.0951
219	169	165	156	221	150	166	158	210	170	175	167	217	166	166	158	10.5868	14.205	10.1128
221	168	165	156	223	149	166	159	212	169	175	167	219	165	165	157	10.0754	11.5632	10.1122
224	168	165	156	224	148	166	159	214	167	175	167	221	163	165	158	10.0039	10.1535	10.1025
224	168	165	156	225	148	167	159	215	167	175	167	223	162	165	158	10.0039	10.0621	10.0929
224	168	165	156	225	147	167	159	215	167	175	167	224	162	166	158	10.0117	10.0817	10.095
225	167	165	157	227	147	166	159	216	166	175	167	224	161	165	158	10.0028	10.1947	10.1021
226	166	165	157	228	146	166	159	218	165	175	167	225	160	165	158	10.0025	10.1413	10.0958
226	165	165	157	228	145	166	159	218	165	175	167	226	160	165	158	10.0101	10.1701	10.0999
226	165	164	157	229	145	166	159	218	164	175	167	226	159	165	158	10.0374	10.1828	10.0925
225	164	164	157	228	144	166	159	217	163	175	167	226	159	165	158	10.0079	10.3495	10.092
224	164	164	157	228	144	166	159	216	163	175	167	225	158	165	158	10.0124	10.5047	10.092
224	164	164	157	228	144	166	159	216	162	175	167	224	158	165	158	10.003	10.5047	10.0907
223	164	164	157	227	143	166	159	216	162	175	167	223	158	165	158	10.0017	10.3166	10.0894
223	164	164	157	226	143	166	159	215	163	175	167	223	158	165	158	10.0015	10.2174	10.093
223	164	164	157	226	143	166	159	215	163	175	167	223	158	165	158	10.0014	10.1615	10.0947
223	164	164	157	226	143	166	159	215	163	175	167	222	158	165	157	10.0013	10.1281	10.0931
223	164	165	156	226	143	166	159	215	164	175	167	222	158	165	157	10.0011	10.1339	10.0951
223	164	165	156	226	143	166	158	215	164	175	167	223	158	165	157	10.0009	10.109	10.0949
223	164	165	156	226	143	166	158	215	164	175	167	223	159	165	157	10.0007	10.0912	10.0961
223	164	165	156	226	143	166	158	215	164	175	167	223	159	165	157	10.0007	10.1081	10.0967
223	164	165	156	226	144	166	158	215	164	175	167	223	159	165	157	10.0006	10.0842	10.0944
223	164	165	156	226	144	166	158	215	164	175	167	223	159	165	157	10.0005	10.0912	10.0951
223	164	165	156	225	144	166	158	215	164	175	167	223	159	165	157	10.0005	10.0726	10.0952
223	164	165	156	225	144	166	158	215	163	175	167	223	159	165	157	10.0005	10.0726	10.0931
226	163	165	156	225	144	166	159	218	162	175	167	224	158	165	158	15.2394	10.0948	10.1083
234	158	164	157	228	142	166	159	218	162	175	167	226	160	165	157	12.0021	124.499	10.2759
238	156	164	157	232	140	166	159	222	159	175	167	230	160	165	157	10.0448	96.4476	10.2982
240	155	164	157	235	137	166	159	227	156	175	167	234	157	165	157	10.0055	31.3681	10.186
241	154	164	157	238	136	167	159	231	154	175	167	238	152	165	157	10.1571	10.9341	10.108
241	154	164	157	240	134	167	159	231	154	175	167	240	149	165	157	10.447	10.0908	10.112
241	153	164	157	242	133	167	159	232	153	175	167	241	147	166	158	10.1791	10.119	10.1008
241	154	164	157	243	133	167	159	233	153	175	167	241	147	166	158	10.1821	10.3461	10.1002
240	154	164	157	243	133	167	159	233	153	175	167	241	147	166	158	10.0409	10.6398	10.0965
240	154	165	157	244	132	167	158	233	153	175	167	241	148	166	158	10.0099	10.8353	10.092
240	154	165	157	244	132	167	158	233	153	175	167	240	148	166	157	10.0023	10.8459	10.092
239	154	165	156	243	132	167	158	232	153	175	167	240	148	166	157	10.0011	10.719	10.0921
239	154	165	156	243	133	167	158	232	154	175	167	240	148	165	157	10.0006	10.5472	10.0932
239	154	165	156	243	133	167	159	231	154	175	167	239	149	165	158	10.0007	10.4347	10.0971
239	154	165	156	243	133	167	159	230	154	175	167	239	148	165	158	10.0007	10.2894	10.0962
239	154	165	156	242	133	167	159	230	154	175	167	239	148	165	158	10.0007	10.198	10.0993
239	154	165	156	242	133	167	159	230	154	175	167	238	148	165	158	10.0006	10.141	10.1011
239	154	165	156	242	133	167	159	230	154	175	167	238	148	165	158	10.0006	10.141	10.1022
239	154	164	157	242	133	167	160	230	154	175	167	238	148	166	158	10.0005	10.1312	10.1025
239	154	164	157	241	133	167	160	230	154	175	167	238	148	166	158	10.0005	10.0939	10.1023
239	154	164	157	241	133	167	160	230	154	175	167	238	149	166	158	10.0005	10.146	10.102
239	154	164	157	241	133	167	160	230	154	175	167	238	149	166	158	10.0021	10.109	10.0997
238	154	164	157	240	133	167	160	230	154	175	167	238	149	166	158	10.0009	10.0772	10.0979
238	154	164	157	240	133	167	159	230	154	175	167	238	149	166	158	10.0005	10.1318	10.0968
238	154	164	157	240	133	167	159	229	154	175	167	237	149	165	158	10.0006	10.0579	10.0986
238	154	164	157	240	133	166	159	229	154	175	167	237	149	165	158	10.0006	10.1001	10.0986
238	154	165	157	240	133	166	159	229	154	175	167	237	149	165	158	10.0007	10.0731	10.0996
238	154	165	157	240	133	166	159	229	154	175	167	237	149	165	158	10.0007	10.0675	10.1003
238	154	165	157	240	133	166	159	229	154	175	167	237	149	165	158	10.0007	10.0979	10.1004
238	154	165	157	240	133	166	159	229	154	175	167	237	149	165	158	10.0007	10.078	10.101
238	154	165	156	240	133	166	159	229	154	175	167	237	149	165	158	10.0006	10.0689	10.1012
238	154	165	156	240	133	166	159	229	154	175	167	237	149	165	158	10.0006	10.0689	10.1014
238	154	165	156	240	133	167	159	229	154	175	167	237	149	166	158	10.0005	10.0958	10.1014
238	154	165	156	240	133	167	159	229	154	175	167	237	149	166	158	10.0005	10.0627	10.1013
238	154	165	156	240	133	167	159	229	154	175	167	237	149	166	158	10.0005	10.058	10.1013
238	154	165	156	240	134	167	159	229	154	175	167	237	149	166	158	10.0005	10.0547	10.1012
238	154	165	156	240	134	167	160	229	154	175	167	237	149	166	158	10.0005	10.0523	10.1011
238	154	164	156	240	134	167	160	229	154	175	167	237	149	166	158	10.0005	10.0508	10.1011
238	154	164	156	240	134	167	160	229	154	175	167	237	149	166	158	10.0005	10.0849	10.101
238	154	164	156	240	134	167	160	229	154	175	167	237	149	166	158	10.0005	10.068	10.1009
238	154	164	157	240	134	167	160	229	154	175	167	237	149	166	158	10.0005	10.0572	10.1009
238	154	164	157	240	134	167	160	229	154	175	167	237	149	166	158	10.0005	10.0506	10.1009
238	154	164	157	239	134	168	160	228	154	175	167	237	149	166	158	10.0005	10.0484	10.1041
238	154	164	157	239	134	168	160	228	154	175	167	237	149	166	158	10.0005	10.0501	10.1059
238	154	164	157	239	134	168	160	228	154	175	167	237	149	166	158	10.0039	10.0501	10.1003
237	155	165	157	239	134	167	160	228	154	175	167	236	149	166	158	10.0011	10.1284	10.0977
237	155	165	157	239	134	167	160	228	154	175	167	236	149	166	158	10.0005	10.1284	10.096
237	155	165	157	239	134	167	160	228	154	175	167	236	149	166	158	10.0008	10.0916	10.0945
237	155	165	157	239	134	167	160	228	154	175	167	236	149	166	158	10.0009	10.07	10.0944
237	155	165	157	239	134	167	160	228	154	175	167	236	149	166	158	10.0008	10.057	10.0944
237	155	165	156	239	134	167	160	228	154	175	167	236	149	166	158	10.0007	10.0499	10.0946
237	155	165	156	239	134	167	160	228	154	175	167	236	149	165	158	10.0007	10.0499	10.0947
237	155	165	156	239	133	166	160	228	154	175	167	236	149	165	158	10.0006	10.0527	10.0948
237	155	165	156	239	133	166	160	228	154	175	167	236	149	165	158	10.0006	10.0547	10.0949
237	155	164	156	239	133	166	159	228	154	175	167	236	149	165	158	10.0005	10.0556	10.0951
237	155	164	156	239	133	166	159	227	154	175	167	236	149	165	158	10.0005	10.0556	10.0983
237	155	164	156	239	133	166	159	228	154	175	167	236	149	165	158	10.0005	10.0549	10.0971
237	155	164	156	239	133	166	159	228	154	175	167	236	149	165	158	10.0005	10.0539	10.0962
237	155	164	156	239	133	166	159	228	154	175	167	236	149	165	158	10.0005	10.0527	10.0963
237	155	164	156	239	133	166	159	228	154	175	167	236	149	165	158	10.0005	10.0515	10.0957
237	155	164	157	239	133	166	159	228	154	175	167	236	149	165	158	10.0005	10.0503	10.0953
237	155	164	157	239	133	166	159	228	154	175	167	236	149	165	158	10.0005	10.0492	10.0951
237	155	164	157	239	133	166	159	228	154	175	167	236	149	165	158	10.0005	10.0483	10.0951
237	155	165	157	239	133	166	159	228	154	175	167	236	149	165	158	10.0005	10.0475	10.095
237	155	165	157	239	133	166	159	228	154	175	167	236	149	165	158	10.0005	10.0469	10.095
237	155	165	157	239	134	166	159	228	154	175	167	236	149	165	158	10.0005	10.1409	10.095
237	155	165	157	240	134	166	159	228	154	175	167	236	149	165	158	10.0005	10.0924	10.095
237	155	165	157	240	134	166	159	228	154	175	167	236	149	165	158	10.0005	10.0878	10.0951
237	155	165	157	240	134	166	159	228	154	175	167	236	149	165	158	10.0005	10.0718	10.0951
237	155	165	157	240	134	166	159	228	154	175	167	236	149	165	158	10.0005	10.1207	10.0951
237	155	165	157	240	134	166	159	228	154	175	167	236	149	165	158	10.0005	10.1207	10.0951
237	155	165	156	240	134	166	159	228	154	175	167	236	149	165	158	10.0005	10.0779	10.0951
237	155	165	156	239	134	166	159	228	154	175	167	236	149	165	158	10.0005	10.0919	10.0951
237	155	165	156	239	134	166	159	228	154	175	167	236	149	165	158	10.0005	10.0741	10.0951
237	155	164	156	239	134	166	159	228	154	175	167	236	149	165	158	10.0005	10.0622	10.0952
237	155	164	156	239	134	166	159	228	154	175	167	236	149	165	158	10.0005	10.0542	10.0952
238	155	164	156	240	133	167	159	229	153	175	167	237	149	166	158	10.0132	10.196	10.0957
239	154	164	156	241	132	167	159	229	153	175	167	237	148	166	158	10.0519	10.7699	10.1094
241	153	164	156	242	132	167	159	230	153	175	167	239	148	166	158	10.0162	10.4202	10.1125
242	152	164	156	243	131	167	159	230	153	175	167	240	147	166	158	10.0008	10.2386	10.1259
242	152	164	156	244	130	166	159	231	152	175	167	241	146	165	158	10.0019	10.1266	10.114
243	151	164	157	245	130	166	158	232	150	175	167	241	146	165	157	10.0032	10.3426	10.1067
243	150	165	157	245	130	165	157	232	149	175	167	242	145	165	157	10.0105	10.3765	10.1056
243	149	163	155	246	130	164	156	232	149	175	167	243	145	164	156	10.4069	10.9296	10.1602
244	149	162	154	246	130	164	156	233	148	175	167	243	144	163	155	10.0092	10.9296	10.1987
245	149	160	152	248	129	162	154	233	146	175	167	244	144	162	154	10.4049	11.2062	10.3098
246	149	157	150	250	129	160	152	234	143	175	167	244	145	159	152	12.814	26.3405	10.644
248	148	154	146	252	129	157	149	235	141	175	167	247	145	156	149	12.7237	20.3041	11.5704
252	148	150	144	255	129	154	147	235	141	175	167	250	144	153	146	10.413	11.7924	14.1286
256	148	147	141	258	129	152	144	238	140	175	167	254	142	150	143	10.5429	11.1109	20.2566
260	148	144	137	261	130	149	142	243	139	175	167	259	141	146	140	10.2789	11.0519	27.808
260	148	144	137	264	131	146	140	243	139	175	167	262	141	144	138	10.2789	11.6064	33.3944
264	148	142	135	268	133	144	137	247	139	175	167	265	142	142	136	10.6157	13.4193	48.715
268	148	142	136	272	136	141	135	251	140	175	167	269	142	141	135	19.9558	13.732	45.8136
271	149	143	137	275	139	139	133	251	140	175	167	273	144	140	134	19.09	13.3869	40.0345
273	150	143	138	279	142	137	131	255	141	175	167	276	147	139	133	13.7508	14.9271	34.4792
275	151	143	137	279	142	137	131	255	141	175	167	277	149	139	134	10.1049	14.9272	37.7683
277	153	143	136	282	145	135	129	256	144	175	167	279	150	139	133	10.0097	11.5232	40.9673
278	154	143	136	286	149	132	126	256	144	175	167	281	152	138	132	10.0172	11.646	41.9103
278	154	143	136	289	152	130	124	258	147	175	167	283	154	137	130	10.0172	10.2994	43.6719
279	154	143	136	291	155	128	122	257	149	175	167	284	156	136	129	10.0133	10.292	46.7124
279	155	143	136	293	157	126	120	257	149	175	167	285	157	135	128	10.1592	10.6808	45.7355
278	155	143	136	294	158	124	119	257	150	175	167	285	158	134	128	10.2448	12.0317	45.6214
277	155	143	136	294	159	123	118	257	150	175	167	285	159	134	128	10.0378	14.4018	43.9374
276	156	143	136	294	159	123	117	256	151	175	167	282	159	136	129	10.1245	23.421	43.5544
274	157	142	135	294	159	123	117	256	151	175	167	281	160	136	129	11.5445	23.4207	56.2274
274	157	142	135	292	160	123	117	253	151	175	167	278	160	137	130	11.5444	42.8344	59.6586
272	158	141	134	290	160	123	118	253	151	175	167	275	160	139	132	10.5052	126.302	69.0649
267	160	142	135	286	159	125	119	250	153	175	167	271	161	140	133	19.2422	183.355	56.9395
262	160	143	137	282	159	126	120	250	153	175	167	267	162	141	134	16.537	93.4	37.627
262	160	143	137	278	158	127	121	245	154	175	167	265	162	139	133	16.5368	29.9558	38.6332
258	161	145	138	275	158	127	121	245	154	175	167	265	162	137	131	10.0839	11.2801	29.0894
253	162	145	139	273	158	125	120	240	155	175	167	261	163	138	132	10.2213	23.4562	25.0779
249	163	146	140	272	158	123	118	235	156	175	167	258	163	137	131	10.0071	14.6216	22.6426
246	165	145	139	272	158	122	116	235	156	175	167	256	164	135	129	10.7308	12.0291	26.2838
243	166	144	138	272	158	122	116	228	156	175	167	255	164	134	128	10.2774	12.0303	29.3583
242	167	143	136	271	158	120	115	228	156	175	167	256	164	131	125	14.8594	10.3681	43.0622
240	169	141	134	271	157	120	114	222	157	175	167	255	164	130	124	10.0266	10.2413	57.9613
240	169	141	134	270	157	119	114	222	157	175	167	254	164	130	124	10.0263	10.4968	57.9613
238	169	142	135	268	157	120	115	218	157	175	167	250	165	131	125	10.7867	18.172	52.3245
236	170	142	135	266	156	123	117	218	157	175	167	244	168	135	129	10.3184	99.1173	45.4979
235	171	143	136	266	156	123	117	215	159	175	167	239	170	139	132	10.0905	99.122	42.6963
234	172	143	136	265	156	124	118	214	161	175	167	242	169	137	130	10.0446	12.4078	40.6286
234	174	143	136	262	156	127	121	214	161	175	167	238	171	139	132	10.0139	59.3538	37.7584
234	174	143	136	261	157	128	122	213	163	175	167	241	170	138	131	10.0116	12.0949	39.2831
233	176	144	136	259	157	131	125	213	163	175	167	242	170	138	132	10.0459	13.9288	37.0273
233	178	144	137	257	157	133	127	213	165	175	167	242	170	138	132	10.0156	10.9809	36.6011
233	179	144	137	257	157	133	127	213	165	175	167	243	170	139	132	10.0104	10.9818	36.1063
234	181	144	137	256	158	134	128	213	168	175	167	243	171	139	132	10.0201	10.4122	36.7245
235	182	144	137	255	158	136	130	213	170	175	167	243	172	140	133	10.0201	10.1998	37.8786
235	182	144	137	254	158	137	131	213	170	175	167	243	172	140	134	10.0198	10.2442	37.8786
236	183	144	137	254	158	139	132	214	172	175	167	243	173	141	134	10.012	10.2191	38.2524
238	183	144	137	254	158	139	133	214	172	175	167	243	173	141	135	10.1687	12.1067	40.1831
239	183	144	137	254	158	139	133	215	172	175	167	244	174	142	135	10.0398	12.1065	40.6642
242	184	142	135	255	158	139	132	215	172	175	167	244	176	142	135	10.8989	21.9608	58.9277
245	184	141	134	257	159	138	131	217	173	175	167	246	178	141	134	10.0354	27.5085	75.5825
248	184	139	133	259	160	136	130	221	174	175	167	248	180	140	133	10.2219	53.1002	114.497
251	185	137	130	262	160	135	129	221	174	175	167	252	179	137	131	11.0482	20.6111	237.049
254	185	135	129	262	160	135	129	224	175	175	167	255	178	136	129	10.0027	20.6108	362.181
256	185	134	128	264	161	134	127	227	176	175	167	259	177	134	128	10.0065	14.4719	454.372
258	185	133	128	267	162	132	126	227	176	175	167	262	175	133	127	10.0305	11.1516	544.336
260	185	133	127	269	162	132	125	230	176	175	167	265	174	132	126	10.0423	10.2267	555.19
262	186	133	128	271	163	131	125	233	176	175	167	267	174	132	126	10.0492	10.1104	514.381
264	187	133	127	272	164	131	125	235	177	175	167	269	175	131	125	10.0082	10.0954	602.935
266	188	132	126	273	164	130	124	235	177	175	167	270	175	131	125	10.002	10.1185	701.564
267	188	132	126	273	164	130	124	236	176	175	167	271	176	131	125	10.0097	10.1185	724.444
268	188	132	126	275	165	129	123	237	176	175	167	272	177	131	125	10.0302	10.3768	717.793
268	188	132	126	276	166	128	122	237	176	175	167	272	177	130	124	10.0332	10.5398	712.171
268	189	131	125	277	166	126	121	237	176	175	167	273	178	129	123	10.2937	10.2947	1004
268	189	130	124	278	167	125	120	237	176	175	167	273	178	128	122	10.0499	10.2354	1257.93
267	189	129	123	278	167	125	120	236	176	175	167	273	178	127	122	10.0078	10.69	1446.84
267	190	129	123	278	167	125	120	236	176	175	167	273	179	127	121	10.0211	10.6901	1499.76
266	191	129	123	278	167	125	120	235	177	175	167	272	180	127	121	10.025	11.1977	1526.19
265	192	128	122	275	166	128	122	233	178	175	167	269	185	127	121	10.1177	361.423	2081.93
264	194	127	122	272	166	130	124	233	178	175	167	266	190	127	121	10.0092	243.662	2393.36
262	196	126	121	268	165	133	127	231	180	175	167	263	194	127	121	10.0262	152.102	2701.1
260	197	126	121	264	165	136	130	228	182	175	167	261	191	128	123	10.0157	20.9082	2650.4
258	198	126	121	264	165	136	130	228	182	175	167	260	190	129	124	10.0106	20.9094	2650.4
256	200	126	121	261	165	138	132	226	184	175	167	258	187	130	125	10.0053	14.4689	1817.09
254	201	126	121	256	164	141	135	223	185	175	167	255	190	130	125	10.006	38.7757	727.376
252	202	126	121	253	164	144	137	223	185	175	167	253	186	133	127	10.0068	10.5754	495.337
251	202	126	121	250	164	145	138	220	186	175	167	250	184	135	129	10.0104	10.1715	390.724
250	203	126	121	247	164	146	139	218	187	175	167	248	184	136	130	10.0105	10.2978	309.299
250	203	126	120	246	164	147	140	218	187	175	167	247	183	137	131	11.0296	10.929	242.895
250	204	125	119	246	164	147	140	218	187	175	167	247	184	137	130	10.1251	10.9312	254.357
251	204	125	119	245	164	147	141	218	187	175	167	247	185	136	130	10.0372	12.0539	229.547
252	204	124	118	245	164	147	141	218	187	175	167	247	186	135	129	10.0434	13.3013	214.852
253	204	124	118	245	163	147	141	219	187	175	167	248	188	134	128	10.0417	16.0702	204.293
254	204	124	118	246	163	147	141	221	187	175	167	250	190	132	126	10.101	20.527	205.327
256	204	124	118	248	163	146	140	221	187	175	167	252	194	130	124	10.0251	38.5413	279.359
258	202	124	118	248	163	146	140	224	186	175	167	255	195	129	123	10.0647	38.5378	232.822
260	201	124	118	250	163	145	138	225	184	175	167	257	196	128	121	10.0173	49.3626	275.25
261	200	124	118	255	164	141	135	225	184	175	167	260	199	125	119	10.0068	916.816	728.667
262	199	124	118	260	164	137	131	226	183	175	167	262	199	124	118	10.0037	638.292	1734.4
264	197	124	118	265	165	133	128	226	183	175	167	264	198	124	118	10.0024	190.508	4821.02
265	196	124	118	268	165	130	125	228	181	175	167	266	190	125	119	10.0015	16.2564	5686.03
267	196	125	119	271	165	128	123	230	180	175	167	269	183	126	120	10.003	10.2449	5432.22
267	196	125	119	271	165	128	123	230	180	175	167	270	180	126	120	10.003	10.2449	5432.22
271	194	125	119	273	165	127	121	232	179	175	167	272	178	126	120	10.0476	10.1683	5860.66
273	194	125	119	274	165	127	121	235	178	175	167	273	181	125	120	10.0089	29.6463	5511.59
274	194	125	119	274	164	127	121	235	178	175	167	275	183	125	119	10.0017	29.4537	5839.17
276	194	125	119	274	164	128	122	238	176	175	167	276	185	125	119	10.0019	33.4515	5476.66
276	194	125	119	275	163	129	123	241	175	175	167	276	183	126	120	10.0019	12.5322	4924.98
277	193	125	119	275	163	130	124	244	174	175	167	277	182	126	120	10.002	18.3303	4803.07
278	192	125	120	274	162	131	125	244	174	175	167	277	180	127	121	10.2203	13.6043	3695.54
277	190	126	121	274	161	131	126	244	173	175	167	276	177	128	123	10.0194	10.3554	2623.21
277	190	126	121	274	161	131	126	244	173	175	167	276	176	129	124	10.0194	10.3554	2623.21
276	190	127	122	274	160	132	126	245	173	175	167	275	175	130	124	10.1251	10.5046	2274.85
276	191	126	121	273	160	133	127	243	174	175	167	275	175	130	124	10.5452	11.0644	2848.8
275	191	125	120	271	160	133	128	241	175	175	167	274	176	129	124	10.0716	11.9207	2647.53
275	191	125	120	270	161	133	127	241	175	175	167	273	177	129	123	10.0715	11.9669	2701.92
273	192	125	119	268	161	133	127	241	175	175	167	271	178	129	123	10.2196	12.5044	2303.58
268	194	124	118	268	161	133	127	237	177	175	167	269	176	129	123	19.4298	12.5049	2917.03
263	195	124	118	263	161	135	130	229	179	175	167	266	181	128	122	18.125	113.562	2641.96
257	197	124	118	257	161	138	131	229	179	175	167	261	189	126	120	14.2074	408.563	1261.74
251	199	124	118	252	162	138	132	222	181	175	167	254	194	126	120	12.3928	97.418	1402.86
251	199	124	118	246	164	139	132	222	181	175	167	250	196	126	119	12.3918	70.5216	848.191
244	201	124	118	246	164	139	132	213	186	175	167	245	198	126	119	10.5756	70.5246	1947.06
222	209	125	120	239	166	140	133	203	191	175	167	235	201	126	120	20.0201	77.6194	2435.82
216	212	126	121	229	168	143	137	203	191	175	167	222	208	126	121	10.1389	986.901	545.513
208	215	126	121	234	176	130	124	199	190	175	167	211	214	126	121	10.0297	1010.05	3051.15
200	219	127	122	240	183	118	113	184	198	175	167	201	218	126	122	10.1284	1010.25	2304.76
192	222	128	123	240	183	118	113	184	198	175	167	192	222	127	122	10.6766	1011.26	2112.4
182	225	131	125	248	189	105	100	172	205	175	167	183	226	129	124	11.9006	1047.08	1023.97
173	229	132	126	255	194	94	90	172	205	175	167	174	229	131	125	10.5432	1805.73	1113.95
164	233	133	127	261	198	86	82	154	214	175	167	165	233	132	127	10.2499	2127.31	541.975
154	236	134	128	263	199	84	80	134	224	175	167	155	237	134	128	10.1653	2904.08	336.191
145	240	135	129	264	200	82	78	119	232	175	167	146	241	135	129	10.1508	2956.33	324.485
136	244	135	129	264	200	82	78	119	232	175	167	136	244	136	130	10.1247	2994.19	246.011
127	249	137	131	264	200	82	78	107	238	175	167	127	249	137	131	10.1131	2994.44	169.858
110	256	140	134	265	199	82	79	93	245	175	167	115	255	139	132	12.4082	2939.34	71.4338
107	258	141	134	266	198	83	79	93	245	175	167	106	259	141	134	20.0191	2940.87	59.4294
106	257	143	136	269	194	84	80	84	249	175	167	100	261	142	135	20.0168	2982.85	47.5098
106	256	144	137	273	190	85	81	81	251	175	167	97	262	144	136	20.0159	2971.53	54.3867
106	256	144	137	273	190	85	81	81	251	175	167	97	262	145	137	19.977	2971.53	52.2984
106	254	145	137	279	185	85	82	80	251	175	167	98	260	145	138	18.7896	2968.78	54.2357
106	252	145	139	285	176	87	83	80	250	175	167	101	257	146	139	10.1968	3008.77	38.78
105	251	146	140	292	168	86	83	80	250	175	167	101	255	146	140	10.028	2979.38	34.6302
103	250	146	140	295	159	90	86	80	247	175	167	101	253	146	140	10.0161	2999.79	27.6943
101	250	146	140	300	151	90	86	79	246	175	167	100	252	146	140	10.0143	2023.71	25.7368
101	248	146	140	304	144	91	88	79	246	175	167	99	251	146	140	10.0543	2016.87	26.5044
100	246	147	141	304	144	91	88	79	244	175	167	98	250	147	141	10.13	2016.87	20.9756
101	245	148	142	307	136	93	89	79	244	175	167	98	248	147	142	10.7409	2024.73	19.9762
101	245	148	142	314	127	93	89	81	240	175	167	98	247	148	142	10.7398	2366.08	17.6678
103	241	149	143	320	119	92	88	81	240	175	167	99	246	148	143	19.0026	2047.72	18.8264
107	235	149	143	326	111	92	88	86	234	175	167	101	243	149	143	20.0006	2010.34	18.716
111	230	149	143	331	104	91	88	86	234	175	167	105	238	149	143	18.3191	2010.21	24.6477
117	224	149	143	331	104	91	88	92	226	175	167	110	233	149	143	19.7778	2010.21	22.999
123	217	149	143	336	97	91	88	92	226	175	167	115	226	149	143	18.9044	2010.11	43.4749
123	217	149	143	340	87	93	90	102	215	175	167	120	221	149	143	18.8933	2038.58	23.1328
127	213	149	143	343	78	95	91	102	215	175	167	124	216	149	143	10.0158	2012.4	28.4212
131	207	150	144	347	72	94	89	108	207	175	167	128	211	149	143	10.2266	2024.21	17.5083
135	202	151	144	349	65	95	91	108	207	175	167	132	206	150	144	10.0216	2026.89	21.7415
140	198	152	145	351	59	95	91	115	199	175	167	136	202	151	144	10.015	2014.63	16.8391
143	194	153	146	351	59	95	91	123	192	175	167	139	198	152	145	11.5256	2014.63	12.7605
147	191	154	147	356	54	94	89	123	192	175	167	142	195	153	146	10.2655	2036.68	13.3435
150	189	155	148	359	47	95	90	129	188	175	167	146	192	155	147	10.0485	2011.26	12.0289
154	186	155	148	362	41	96	91	129	188	175	167	149	189	155	148	10.0196	2012.83	13.0145
157	184	155	148	363	36	99	94	136	183	175	167	152	187	156	148	10.1056	2081.81	11.8118
159	182	155	148	363	36	99	94	136	183	175	167	154	185	156	148	10.3948	2081.81	12.4459
162	179	155	148	366	32	98	94	141	177	175	167	157	182	155	148	10.0048	2030.01	11.7991
165	177	155	148	367	27	101	97	147	171	175	167	161	179	155	148	10.0072	2103.42	11.3504
168	174	155	148	375	25	96	92	147	171	175	167	163	176	155	148	10.0027	3009.56	11.9061
170	170	155	148	381	24	93	89	151	167	175	167	166	173	155	148	10.008	2555.85	11.6941
172	168	155	148	384	22	92	87	151	167	175	167	168	171	154	147	10.1717	2032.09	12.0785
174	167	155	148	384	22	92	87	154	163	175	167	170	169	154	147	10.0078	2032.09	11.8388
177	163	154	148	384	20	93	89	159	158	175	167	173	165	154	147	10.0411	2601.06	11.5414
180	160	154	147	387	17	94	89	159	158	175	167	176	163	154	147	10.004	2011.03	12.1072
184	158	154	147	393	16	90	86	163	154	175	167	179	160	154	147	10.0027	2495.6	11.9522
184	158	154	147	394	12	93	89	163	154	175	167	180	159	154	147	10.0027	2623.82	11.9522
187	155	154	147	394	12	93	89	168	149	175	167	183	157	154	147	10.002	2623.82	11.6145
191	150	154	147	395	9	95	91	173	144	175	167	187	153	154	147	10.5741	2084.89	11.5151
195	147	154	147	401	8	91	87	173	144	175	167	190	150	154	147	10.0024	2964.99	12.1742
198	144	154	147	403	4	93	89	176	140	175	167	193	146	154	147	10.003	2165.25	12.058
201	141	154	147	404	0	95	91	176	140	175	167	196	144	154	147	10.0032	2036.18	13.0644
204	139	154	147	407	-1	94	90	181	136	175	167	199	141	154	147	10.0226	2014.44	12.3928
207	137	154	147	407	-1	94	90	181	136	175	167	201	140	154	147	10.0264	2014.44	13.2665
209	136	154	147	412	-2	91	87	186	132	175	167	204	138	154	147	10.1673	2248.67	12.1844
210	136	155	148	412	-3	93	87	186	132	175	167	205	137	154	147	11.6907	2051.87	12.4223
210	136	155	148	415	-4	92	86	189	130	175	167	206	137	154	147	10.7511	2014.59	11.8356
211	136	155	148	415	-4	92	85	191	130	175	167	207	136	154	147	10.1692	2033.83	11.6192
212	135	155	148	418	-3	90	82	191	130	175	167	208	136	154	147	10.0023	2063.51	11.8227
214	133	155	148	418	-3	92	82	194	128	175	167	210	135	154	147	10.0071	2076.71	11.6798
215	132	155	148	418	-3	92	82	194	128	175	167	211	134	154	147	10.004	2076.71	12.0143
217	130	155	148	421	-3	90	78	196	126	175	167	212	133	154	147	10.006	2039.04	11.7682
218	129	155	148	418	-2	96	79	196	126	175	167	213	132	154	147	10.0035	3006.59	11.9722
218	128	155	148	422	-2	93	76	199	124	175	167	214	131	154	147	10.0088	2329.14	11.6735
218	128	155	148	413	-1	105	81	199	124	175	167	215	130	154	147	10.0209	3010	11.7169
218	128	154	147	413	-1	105	81	199	122	175	167	215	129	154	147	10.0229	3010	11.592
218	128	154	147	413	-1	105	80	199	122	175	167	215	129	154	147	10.0149	2012.73	11.5725
219	127	154	147	413	-1	106	79	199	121	175	167	215	128	154	147	10.0026	2011.55	11.6207
221	125	154	147	410	0	111	81	199	121	175	167	215	128	154	147	11.0703	2318.95	12.02
223	123	154	147	414	0	108	77	201	118	175	167	217	126	154	147	10.1137	3005.5	11.9391
224	122	154	147	415	0	109	75	204	116	175	167	218	125	154	147	10.0029	2010.56	11.938
226	120	154	147	415	0	109	75	204	116	175	167	220	123	154	147	10.0126	2010.56	12.1352
228	118	154	147	415	0	111	75	206	113	175	167	223	120	154	147	10.0019	2010.86	11.8747
229	118	154	147	420	0	106	70	206	113	175	167	224	119	154	147	10.0168	3009.25	12.0442
229	118	154	147	415	0	114	73	208	112	175	167	225	118	154	147	10.0167	3009.92	11.7283
231	116	154	147	423	0	107	69	208	112	175	167	226	118	154	147	10.0061	3009.95	12.0866
231	116	154	147	423	0	107	69	210	109	175	167	227	117	154	147	10.0167	3009.95	11.7468
231	115	155	148	417	0	116	76	210	109	175	167	227	116	154	147	10.0099	3010	11.7685
231	115	155	148	419	0	115	77	211	109	175	167	227	116	154	147	10.0093	2028.61	11.6363
231	115	155	148	420	0	114	78	211	109	175	167	227	116	154	147	10.0069	2016.4	11.6174
231	115	155	148	411	0	125	86	211	109	175	167	227	116	154	147	10.0045	3010	11.57
230	115	155	148	410	0	127	88	211	109	175	167	227	116	154	147	10.0093	2010.38	11.5359
230	116	155	148	410	0	127	88	211	109	175	167	227	116	154	147	10.0031	2010.38	11.5265
231	116	155	148	411	0	125	87	211	109	175	167	227	117	154	147	10.0027	2734.63	11.5535
232	115	155	148	409	0	130	89	211	110	175	167	227	117	154	147	10.3605	2018.7	11.7759
234	114	155	148	410	0	130	89	214	107	175	167	229	116	154	147	10.1998	2051.7	11.6776
236	112	155	148	412	0	130	87	214	107	175	167	230	115	154	147	10.0206	2306.82	11.6776
240	111	154	147	416	0	126	83	216	106	175	167	232	114	154	147	12.4001	3004.39	12.2413
244	111	153	146	420	0	125	82	216	106	175	167	235	113	154	146	10.5885	2016.99	14.2899
247	111	151	144	428	0	119	78	220	105	175	167	240	112	152	145	11.3871	3009.83	16.2687
252	111	151	144	434	0	117	77	220	105	175	167	244	112	151	144	10.8709	2016.44	19.8996
253	111	152	145	434	0	117	77	226	105	175	167	247	112	151	144	16.8761	2016.44	15.0908
254	112	153	146	435	0	121	81	226	105	175	167	248	113	152	145	12.4274	2975.77	14.404
255	113	154	147	429	0	134	90	231	106	175	167	250	114	153	146	10.045	3010	12.5695
256	113	154	147	439	0	125	87	231	106	175	167	251	114	154	147	10.0132	3010	12.4844
257	114	155	148	433	0	137	96	236	107	175	167	253	115	154	147	10.0119	3010	11.7148
257	115	155	148	441	0	130	93	238	108	175	167	254	116	155	148	10.0296	3010	11.4282
257	115	155	148	442	0	131	95	238	108	175	167	254	116	155	148	10.0296	2011.1	11.4282
257	115	155	148	440	0	135	98	240	109	175	167	255	116	155	148	10.0356	2730.17	11.3529
258	115	155	148	449	0	126	93	240	109	175	167	255	117	155	148	10.0029	3010	11.4417
260	116	155	148	447	0	131	98	241	110	175	167	256	117	155	148	10.0061	3007.78	11.4555
263	117	155	148	447	0	131	98	241	110	175	167	257	118	155	148	10.0035	3007.78	11.6154
265	118	155	148	448	0	132	100	244	111	175	167	259	118	155	148	10.0018	2010.39	11.7294
266	118	155	148	459	0	120	95	244	111	175	167	261	119	155	147	10.0052	3010	11.855
267	118	155	148	468	0	112	92	247	112	175	167	262	119	154	147	10.0037	3009.1	11.5822
267	118	154	147	471	0	111	92	249	112	175	167	264	120	154	147	10.0074	2021.55	11.4813
268	118	154	147	473	0	111	93	249	112	175	167	265	120	154	147	10.0016	2025.13	11.5578
269	119	154	147	476	0	108	93	251	113	175	167	266	120	154	147	10.0035	2010.2	11.5071
272	119	153	146	466	0	123	104	251	113	175	167	268	121	154	147	10.8865	3010	12.5138
274	119	152	145	469	0	121	103	254	113	175	167	270	121	153	146	10.009	2246.45	13.073
276	119	151	144	475	0	114	100	254	113	175	167	272	121	152	145	10.0137	3009.91	14.2626
276	119	151	144	472	0	119	103	255	113	175	167	273	121	151	144	10.0067	2999.93	14.2507
277	119	151	144	472	0	119	103	255	113	175	167	274	121	151	144	10.0067	2999.93	14.2507
279	120	152	145	478	0	115	102	257	114	175	167	275	122	151	144	12.4274	2220.69	13.1735
279	120	154	147	482	0	112	102	260	115	175	167	276	122	152	145	10.04	2018.41	12.0508
280	121	154	147	482	0	112	102	260	115	175	167	277	122	153	146	10.0082	2018.41	11.8487
282	122	155	148	486	0	110	102	263	116	175	167	278	123	154	147	10.0072	2010.69	11.5027
284	122	155	148	488	0	111	105	263	116	175	167	279	123	155	148	10.0028	2101.69	11.5665
285	123	155	148	489	0	114	109	267	117	175	167	281	124	155	148	10.0038	2744.79	11.3642
287	124	155	148	489	0	117	113	267	117	175	167	283	125	155	148	10.0041	2483.65	11.5358
289	125	155	148	490	0	119	115	271	119	175	167	285	126	155	148	10.0033	2010.88	11.369
292	126	155	148	497	4	114	111	271	119	175	167	287	127	155	148	10.0026	3009.21	11.5785
293	127	155	148	505	9	111	108	275	120	175	167	290	128	155	148	10.0027	2013.01	11.3894
295	128	155	148	505	9	111	108	279	122	175	167	292	129	155	148	10.0032	2013.01	11.2811
296	128	155	148	508	10	110	106	279	122	175	167	294	130	154	147	10.0014	2010.89	11.3647
297	129	155	148	509	12	111	107	282	123	175	167	296	130	154	147	10.0028	2022.47	11.3099
298	129	155	148	511	13	110	106	282	123	175	167	297	131	154	147	10.0134	2012.61	11.3464
299	130	154	147	513	14	109	105	283	124	175	167	297	131	154	147	10.0039	2010.56	11.3295
299	130	154	147	514	16	110	105	283	124	175	167	298	132	154	147	10.0023	2010.68	11.3502
301	131	154	147	516	17	108	104	285	124	175	167	299	132	154	147	10.0019	2011.1	11.3211
302	131	154	147	518	19	108	104	285	124	175	167	299	132	154	147	10.0014	2010.12	11.3744
303	132	154	147	508	16	121	116	287	125	175	167	300	133	154	147	10.0028	3010	11.2892
303	132	154	147	506	16	124	119	288	126	175	167	301	133	154	147	10.0061	2016.46	11.2739
303	132	154	147	509	17	122	116	288	126	175	167	301	134	154	147	10.0055	2991.72	11.2599
304	133	154	147	510	19	122	116	288	127	175	167	302	134	154	147	10.0023	2017.74	11.2885
306	134	154	147	515	21	116	111	288	127	175	167	303	135	154	147	10.0021	3009.76	11.372
306	135	155	148	516	23	116	111	290	127	175	167	304	136	154	147	10.0017	2010.1	11.289
307	135	155	148	522	26	111	106	290	127	175	167	304	136	154	147	10.0013	3003.08	11.3203
305	138	155	148	523	30	109	104	293	129	175	167	305	137	154	147	15.558	2016.02	11.1509
305	138	155	148	521	34	108	103	293	129	175	167	305	138	154	147	15.558	2713.15	11.1509
294	148	155	148	517	40	108	103	288	135	175	167	301	142	154	147	20.0004	2929.38	16.8506
289	151	155	148	517	40	108	103	288	135	175	167	296	146	154	147	10.1133	2929.38	17.3378
285	154	155	148	507	43	114	109	280	141	175	167	290	151	154	147	10.0022	3010	16.9511
283	155	155	148	503	50	113	108	280	141	175	167	286	154	154	147	10.5975	2244.7	17.1133
282	156	155	148	500	55	112	107	274	147	175	167	283	157	154	147	12.8804	2013.54	11.1568
280	158	155	148	499	60	109	104	268	151	175	167	280	159	154	147	10.0107	2467.04	11.1608
278	159	155	148	493	63	111	105	268	151	175	167	278	160	154	147	10.0029	2239.93	11.1303
276	160	154	147	489	65	111	106	264	153	175	167	275	162	154	147	10.0044	2010.86	11.1676
275	161	154	147	488	68	108	103	264	153	175	167	274	163	154	147	10.0832	2270.44	11.1454
274	161	154	147	488	68	108	103	261	155	175	167	272	163	154	147	10.2389	2270.44	11.2393
273	161	154	147	489	70	105	100	259	155	175	167	272	163	154	147	10.0234	2261.01	11.345
274	161	154	147	485	70	108	103	259	155	175	167	271	163	154	147	10.0234	2903.48	11.3454
274	160	154	147	482	69	111	106	259	155	175	167	272	163	154	147	10.0487	2674.07	11.3735
275	160	154	147	482	69	111	106	259	155	175	167	272	162	154	147	10.0119	2674.07	11.408
275	160	154	147	482	69	112	106	260	155	175	167	273	162	154	147	10.0039	2033.86	11.3669
276	160	154	147	478	67	116	111	260	155	175	167	273	162	154	147	10.0019	2834.42	11.3901
276	159	155	148	479	66	116	110	260	154	175	167	274	161	154	147	10.0011	2168.23	11.3456
276	159	155	148	481	66	114	109	261	154	175	167	274	161	154	147	10.0031	2202.23	11.2776
275	159	155	148	483	66	112	107	261	154	175	167	274	161	154	147	10.0017	2231.9	11.2661
273	160	155	148	483	66	112	107	261	153	175	167	273	161	154	147	10.5203	2231.9	11.1707
272	161	155	148	486	67	109	104	261	153	175	167	272	161	154	147	10.008	2416.48	11.1389
269	163	155	148	504	80	104	102	259	154	175	167	271	162	154	147	12.455	3010	11.1298
265	165	155	148	516	70	103	122	253	157	175	167	267	164	154	147	12.5393	3010	11.7873
262	166	155	148	516	70	103	122	253	157	175	167	264	166	154	147	10.0056	3010	11.7627
260	167	155	148	524	60	103	140	249	160	175	167	260	168	154	147	10.0085	3010	11.157
260	168	155	148	529	49	106	153	249	160	175	167	259	169	154	147	10.2387	3009.99	11.1408
260	168	154	147	533	42	106	163	247	161	175	167	258	169	154	148	10.9146	2052.09	11.202
261	169	154	147	536	35	106	174	247	161	175	167	258	170	154	148	10.5416	2112.82	11.2315
262	169	154	147	536	29	108	178	247	162	175	167	259	170	154	148	10.0513	3001.3	11.2946
263	169	154	147	535	22	111	182	248	163	175	167	260	171	154	148	10.0096	2992.96	11.2975
264	169	154	147	534	18	112	185	248	163	175	167	261	171	154	148	10.0037	2895.62	11.3255
264	169	154	147	533	17	113	184	249	163	175	167	262	171	154	148	10.0039	3008.36	11.2998
263	169	154	147	533	17	113	184	249	163	175	167	262	171	154	148	10.002	3008.36	11.282
263	170	154	147	532	16	113	186	249	164	175	167	262	171	154	148	10.0015	2235.42	11.2702
263	170	155	148	532	16	112	186	249	164	175	167	262	171	154	148	10.0014	2600.33	11.2571
263	170	155	148	535	24	109	183	249	164	175	167	262	171	154	148	10.0013	3009.99	11.2528
263	170	155	148	533	19	109	187	249	164	175	167	262	171	154	148	10.0013	2273.38	11.2593
263	170	155	148	532	21	110	183	249	164	175	167	262	171	154	148	10.0013	2999.37	11.2589
263	170	155	148	532	21	110	183	248	164	175	167	262	171	154	148	10.0012	2011.76	11.2661
263	170	155	148	532	21	110	183	248	164	175	167	261	171	154	148	10.0025	2011.76	11.2493
262	170	155	148	531	24	110	179	248	163	175	167	261	171	154	148	10.0058	2711.96	11.2117
259	171	155	148	528	26	112	178	245	165	175	167	259	172	154	148	12.4323	2081.28	11.2567
255	173	155	148	525	32	115	175	245	165	175	167	257	173	154	148	14.5159	2763.9	11.1551
255	173	155	148	521	36	118	172	241	167	175	167	254	174	154	148	14.5159	2131.97	11.2982
248	177	154	147	518	37	121	174	241	167	175	167	251	176	154	148	10.0548	2083.13	11.1938
248	177	154	147	515	40	123	173	236	170	175	167	248	177	154	148	10.0548	2011.62	11.2007
245	178	154	147	515	40	123	173	236	170	175	167	246	179	154	148	10.0044	2011.62	11.1642
244	178	154	147	513	43	125	171	232	171	175	167	244	179	154	148	10.1231	2010.85	11.1658
244	179	154	147	511	42	127	171	231	172	175	167	242	180	154	148	10.3722	2012.18	11.1985
244	179	154	147	509	43	129	170	231	172	175	167	242	180	154	148	11.0334	2011.6	11.2143
245	178	154	147	508	43	130	169	231	172	175	167	243	180	154	148	10.1785	2010.81	11.2523
246	178	154	147	508	43	130	169	231	172	175	167	243	180	154	148	10.0302	2010.81	11.2836
246	178	154	147	508	43	130	169	231	172	175	167	244	180	154	148	10.007	2013.3	11.2909
247	178	155	148	508	43	130	168	232	172	175	167	245	179	154	148	10.0025	2011.64	11.2777
247	178	155	148	508	44	130	168	232	172	175	167	245	179	154	148	10.0014	2012.12	11.2939
247	178	155	148	509	45	129	168	233	172	175	167	246	179	154	148	10.0014	2013.22	11.2613
247	178	155	148	510	42	128	171	233	172	175	167	246	179	154	148	10.0011	2428.03	11.2709
247	178	155	148	510	42	128	171	234	172	175	167	246	179	154	148	10.0026	2428.03	11.2381
248	178	153	146	511	43	128	171	234	172	175	167	247	180	154	147	10.3045	2011.17	11.842
249	179	152	145	512	44	127	170	234	173	175	167	248	180	153	146	10.0076	2010.52	12.4132
250	179	152	145	512	44	127	170	235	174	175	167	249	181	152	145	10.0029	2010.52	12.9479
251	180	150	143	507	31	131	192	235	174	175	167	250	181	150	144	10.0459	3010	14.4388
252	181	149	143	508	31	131	188	236	174	175	167	251	182	149	143	10.004	3009.83	15.749
254	182	147	141	508	34	131	183	236	174	175	167	253	183	147	141	10.0914	3000.25	19.9284
255	183	145	140	508	34	131	183	237	174	175	167	254	184	146	140	10.0071	3000.25	23.8215
256	183	145	139	509	36	130	180	237	174	175	167	255	184	145	139	10.0227	2679.1	26.3649
257	184	145	139	508	39	131	176	237	175	175	167	256	185	144	138	10.0282	2132.67	28.2837
258	184	145	139	508	42	130	174	237	175	175	167	257	185	144	138	10.0768	2035.64	29.2406
260	183	145	139	509	45	130	171	238	175	175	167	259	185	144	138	10.1104	2011.37	29.3356
263	182	144	138	509	45	130	171	238	175	175	167	261	184	143	138	10.2585	2011.37	38.4902
263	182	144	138	509	47	129	170	242	174	175	167	262	184	143	137	10.2566	2011.84	34.2007
265	182	143	137	508	50	131	169	242	174	175	167	264	183	143	137	10.025	2013.44	41.5428
268	182	142	135	506	51	133	168	246	175	175	167	267	183	142	136	10.1432	2014.34	60.3283
270	182	141	134	506	51	133	168	246	175	175	167	270	182	141	134	10.0363	2014.34	83.9634
274	182	139	132	504	53	135	167	250	174	175	167	274	182	140	133	10.1644	2010.7	124.796
274	182	139	132	503	55	136	167	250	174	175	167	276	182	139	132	10.1644	2010.26	124.796
279	181	138	131	503	57	136	167	257	172	175	167	279	182	138	131	10.156	2010.57	152.925
285	180	135	129	503	58	136	167	257	172	175	167	284	181	136	130	18.3313	2010.46	313.103
290	178	134	128	503	61	136	167	257	172	175	167	289	179	135	129	10.2749	2012.48	547.079
293	177	134	128	503	61	136	167	265	169	175	167	294	177	133	128	10.3273	2012.48	498.157
295	177	132	127	501	65	138	167	265	169	175	167	297	177	132	127	10.881	2054.66	708.851
295	177	132	127	497	67	142	167	271	167	175	167	298	176	132	126	10.82	2068.79	579.864
297	177	132	126	493	68	146	168	271	167	175	167	300	176	131	126	10.4448	2029.41	706.117
300	177	130	124	488	69	150	168	276	164	175	167	301	176	130	125	10.4886	2051.36	1021.43
302	177	129	123	484	71	154	168	276	164	175	167	303	176	129	124	10.6566	2011.42	1390.84
304	175	129	123	484	71	154	168	280	162	175	167	305	175	129	123	10.7389	2011.42	1533.34
307	174	129	123	480	72	159	168	280	162	175	167	307	174	128	122	10.8502	2015.24	1720.97
307	174	129	123	475	73	163	168	284	159	175	167	309	173	128	122	10.7672	2013.24	1553.85
309	171	130	124	472	75	167	168	284	159	175	167	310	172	129	123	16.0616	2010.17	1132.57
313	168	130	124	468	76	171	168	284	159	175	167	313	169	129	123	12.0893	2010.11	1426.66
316	166	128	123	465	79	174	168	290	155	175	167	316	167	129	123	11.0219	2010.82	1836.73
319	165	127	122	464	86	175	169	290	155	175	167	319	165	128	123	11.2531	2892.78	2532
322	165	126	120	464	86	175	169	297	151	175	167	322	164	127	121	11.8551	2892.78	3465.04
322	165	126	120	462	96	176	169	297	151	175	167	324	163	126	121	11.8551	2991.75	3465.04
324	164	125	119	461	106	177	169	307	148	175	167	325	163	125	119	12.4473	2941.97	4641.3
327	165	124	118	461	114	178	169	307	148	175	167	328	163	124	119	12.8071	2082.56	5180.63
330	166	123	117	459	122	179	169	313	146	175	167	330	164	123	118	14.1059	2016.14	7159.61
333	167	121	115	459	127	179	169	313	146	175	167	333	165	122	116	16.3976	2020.43	10339.2
336	167	120	114	459	127	179	169	317	149	175	167	336	166	121	115	19.3888	2020.36	13650
338	168	118	112	460	129	178	169	317	149	175	167	339	167	119	114	24.8379	2201.91	18049.4
339	168	117	111	461	131	177	169	317	149	175	167	341	167	118	112	29.8401	2302.3	20911.4
339	168	117	111	462	132	177	169	317	151	175	167	343	168	117	111	30.9743	2132.92	21481.7
338	169	117	111	462	133	177	169	317	151	175	167	343	168	117	111	37.2966	2068.72	23073.4
337	169	116	110	461	133	177	169	318	149	175	167	343	169	116	110	37.2152	2025.07	23467.1
335	170	117	110	460	133	177	169	318	149	175	167	341	169	116	110	36.2841	2019.27	23607.8
334	171	117	111	459	134	177	169	315	151	175	167	339	170	117	111	33.508	2010.97	22705.9
334	172	117	111	459	135	177	169	315	151	175	167	338	171	117	111	31.7149	2010.69	21913.9
334	173	117	111	459	135	177	169	315	151	175	167	337	172	117	111	30.047	2010.69	21104.9
335	173	117	111	458	136	177	169	311	153	175	167	337	173	118	111	28.458	2010.24	20262.6
335	173	117	111	456	138	177	169	311	153	175	167	337	173	118	112	28.458	2010.28	20262.6
336	173	117	111	456	140	177	169	311	155	175	167	337	173	118	112	28.2232	2009.92	20135.5
338	174	117	111	455	142	177	168	311	155	175	167	338	173	118	112	27.4617	2009.9	19705.8
338	174	118	111	453	145	177	168	310	157	175	167	339	174	118	112	27.4907	2010.45	19724.4
337	176	118	112	451	148	177	168	310	157	175	167	339	175	118	112	26.9332	2010.05	19340.3
337	176	118	112	449	150	177	168	310	157	175	167	339	175	118	112	26.9332	2009.79	19340.3
336	177	118	112	445	152	177	168	307	159	175	167	338	176	118	112	27.1349	2009.63	19398.7
331	179	118	112	444	152	177	168	307	159	175	167	336	178	118	112	26.4976	2009.54	19094.7
329	180	118	112	444	152	177	168	301	161	175	167	333	179	118	112	26.4649	2010.17	19099.6
327	182	118	112	415	115	206	248	301	161	175	167	330	181	118	113	26.2772	3010	18994.7
326	182	118	112	418	125	200	231	297	161	175	167	328	182	118	113	26.1718	3009.92	18927.2
325	183	118	112	422	133	194	215	297	161	175	167	326	183	118	113	26.0464	3009.72	18849.7
323	184	118	112	425	139	189	202	295	162	175	167	324	183	118	112	26.1086	3009.58	18889
323	184	118	112	428	145	185	191	295	162	175	167	323	184	118	112	26.0563	3009.39	18836.6
324	185	117	111	431	150	182	182	294	163	175	167	323	185	118	112	26.4421	3001.96	18847.5
326	186	117	111	433	154	179	175	294	163	175	167	324	186	118	112	25.8789	2098.95	18740.3
326	187	117	111	435	157	177	170	294	163	175	167	325	187	118	112	25.9679	2010.52	18799.5
326	187	117	111	435	157	177	170	294	163	175	167	326	187	118	112	25.913	2010.52	18763.8
326	187	117	111	436	158	176	166	293	164	175	167	327	187	118	112	26.1134	2010.4	18890.7
325	188	117	111	437	160	175	164	293	164	175	167	327	188	118	112	26.1297	2014.07	18900.5
325	187	117	111	437	160	174	163	293	164	175	167	327	188	118	112	26.1792	2029.43	18931.3
325	187	117	111	437	161	174	162	293	164	175	167	327	188	118	112	25.8941	2039.78	18753
325	188	117	111	437	161	174	162	293	164	175	167	327	188	118	112	25.7773	2040.72	18678.2
324	188	118	111	437	161	174	162	294	164	175	167	326	188	118	112	25.6077	2035.24	18569.5
323	189	118	112	436	161	174	163	294	164	175	167	326	189	118	112	25.4976	2026.58	18493.2
322	190	118	112	434	162	175	164	293	164	175	167	324	189	118	112	25.4682	2019.3	18442.9
322	190	118	112	433	162	175	165	293	164	175	167	324	190	118	112	25.4682	2014.42	18442.9
321	192	116	111	431	163	175	165	290	165	175	167	323	191	118	112	31.6828	2011.32	21686
319	195	115	110	431	163	175	165	290	165	175	167	322	192	117	111	36.6972	2011.32	23931.1
318	197	115	110	431	163	175	165	287	167	175	167	321	194	116	111	40.563	2011.55	25310.1
318	198	114	109	431	163	175	165	286	168	175	167	320	196	116	111	43.1885	2011.62	26079.4
318	198	114	109	430	163	176	166	286	168	175	167	320	197	115	110	44.6195	2010.59	26424.4
318	198	114	109	430	163	176	167	286	168	175	167	320	198	115	110	44.4545	2010.85	26379.7
319	197	114	109	430	163	176	167	286	168	175	167	320	198	115	110	45.0658	2009.92	26459.3
318	198	114	109	430	163	176	167	286	169	175	167	320	198	115	110	44.0366	2009.96	26326
317	198	114	109	429	163	176	168	286	169	175	167	320	198	115	110	43.2518	2009.8	26108.9
317	198	114	109	429	163	176	168	283	171	175	167	319	198	115	110	43.0996	2010.08	26065.7
317	198	114	109	428	163	176	168	283	171	175	167	319	198	115	110	43.0996	2009.95	26065.7
316	198	114	109	429	163	176	168	280	173	175	167	319	198	115	110	43.8389	2010.14	26274.7
316	198	114	109	429	162	177	169	280	173	175	167	318	197	115	111	43.8389	2010.19	26274.7
315	197	114	109	429	162	177	169	280	173	175	167	318	197	116	111	43.1306	2010.19	26075.9
314	197	114	109	429	162	177	169	276	173	175	167	317	197	116	111	44.5253	2010.04	26461.5
314	197	114	109	429	162	177	169	276	173	175	167	317	197	116	111	43.8896	2010.04	26288.7
313	198	115	110	429	162	177	169	269	175	175	167	316	197	116	111	49.3088	2010.17	27641
312	198	115	110	429	162	177	169	269	175	175	167	315	197	116	111	48.0593	2010.1	27352.3
312	198	115	110	428	161	177	169	269	175	175	167	315	197	116	111	48.0593	2010.07	27352.3
312	199	115	110	428	161	177	169	275	171	175	167	314	197	116	111	42.3658	2010.07	25866.2
310	200	115	110	427	162	177	169	275	171	175	167	313	198	116	111	41.6788	2010.09	25655.3
309	200	115	110	427	162	177	169	277	169	175	167	312	199	116	111	41.1198	2010.07	25482.9
308	201	115	110	426	162	177	169	277	169	175	167	311	199	116	111	41.1349	2010	25488.2
307	200	115	110	426	161	177	169	277	169	175	167	310	200	116	111	41.182	2010.01	25499.7
307	200	115	110	426	162	177	169	277	169	175	167	309	200	116	111	41.1428	2010	25488.3
307	200	115	110	426	162	177	169	276	169	175	167	309	200	116	111	41.0982	2010.03	25475.5
308	200	115	110	427	161	177	169	276	169	175	167	309	200	116	111	41.1572	2010.11	25490.9
308	200	115	110	427	161	177	169	275	169	175	167	309	199	116	111	41.3968	2010.19	25567.2
309	199	114	109	428	161	177	169	275	169	175	167	310	199	116	111	41.5831	2010.55	25621.9
308	200	114	109	428	161	177	169	273	170	175	167	310	199	116	111	41.9065	2010.56	25711.5
308	200	114	109	429	160	177	169	273	170	175	167	310	199	116	111	41.6923	2010.05	25656.2
308	200	114	109	427	161	177	169	271	172	175	167	310	199	116	111	42.5016	2013.35	25895.1
305	201	114	109	427	161	177	169	271	172	175	167	309	199	116	111	42.0238	2013.35	25613.3
301	203	114	109	425	162	177	169	266	175	175	167	307	200	116	111	51.0346	2018.42	25674.9
298	204	114	109	422	164	176	168	266	175	175	167	304	202	116	111	41.096	2030.63	25427.3
295	206	114	109	422	164	176	168	266	175	175	167	301	203	116	111	41.0482	2030.63	25461.1
293	207	114	109	419	166	176	168	261	178	175	167	298	205	116	111	41.0096	2016.3	25449.6
293	207	114	109	415	167	176	168	261	178	175	167	295	206	116	111	41.0096	2025.95	25449.6
290	208	114	109	415	167	176	168	254	181	175	167	293	207	116	111	42.165	2025.97	25796.2
290	208	114	109	411	169	176	168	254	181	175	167	291	208	116	111	42.165	2016.74	25796.2
287	209	114	109	411	169	176	168	254	181	175	167	289	209	116	111	41.0948	2016.74	25475.2
284	211	115	110	407	171	176	168	249	184	175	167	287	210	116	111	41.9666	2010.47	25739.2
281	211	115	110	403	173	176	168	249	184	175	167	284	211	116	111	41.086	2011.27	25472.5
281	211	115	110	403	173	176	168	244	185	175	167	283	211	116	111	42.7212	2011.28	25959
279	212	115	110	400	174	176	168	244	185	175	167	281	212	116	111	41.6961	2010.12	25657
276	213	115	110	397	176	176	168	240	186	175	167	279	213	116	111	42.1601	2010.22	25796.2
274	215	115	110	397	176	176	168	240	186	175	167	277	214	116	111	41.3793	2010.22	25562.1
272	215	115	110	393	177	176	168	238	187	175	167	275	214	116	111	41.688	2010.05	25654.8
272	215	115	110	390	179	176	168	238	187	175	167	274	215	116	111	41.688	2010.07	25654.8
270	216	115	110	390	179	176	168	238	187	175	167	272	216	116	111	41.1737	2010.07	25499.7
267	218	115	110	387	180	176	168	235	188	175	167	270	217	116	111	41.1624	2010.01	25489.4
264	219	115	110	383	182	176	168	235	188	175	167	268	218	116	111	41.2065	2010.25	25508.1
261	221	115	110	383	182	176	168	232	188	175	167	265	219	116	111	41.4612	2010.3	25586.3
258	223	115	110	379	184	176	168	232	188	175	167	262	221	116	111	42.685	2010.08	25948.6
255	224	115	110	379	184	176	168	228	190	175	167	258	223	116	111	42.5082	2010.14	25897.7
251	227	115	110	374	186	176	168	228	190	175	167	255	225	116	111	45.3157	2011.41	26668
247	228	115	110	369	189	176	168	214	199	175	167	251	227	116	111	41.1552	2015.4	25503.1
243	230	114	109	369	189	176	168	214	199	175	167	247	229	116	111	41.1728	2015.4	25508.8
239	232	114	109	363	191	176	168	204	205	175	167	243	231	116	111	41.5435	2010.46	25611.9
234	234	114	109	357	193	176	168	204	205	175	167	238	233	116	111	40.8552	2013.38	25399.9
234	234	114	109	357	193	176	168	198	208	175	167	235	234	116	111	42.2846	2013.41	25830.8
222	239	114	109	351	196	177	169	198	208	175	167	229	237	116	111	44.8151	2010.95	25850.1
216	241	114	109	344	198	177	169	198	208	175	167	223	239	116	111	47.9006	2022.77	27303.2
216	241	114	109	337	201	177	169	193	210	175	167	218	241	116	111	43.1146	2011.46	26058.4
212	243	114	109	337	201	177	169	193	210	175	167	214	243	116	111	46.4864	2011.46	26929.3
206	245	114	109	330	204	177	169	182	214	175	167	209	244	116	111	42.7312	2010.24	25951.2
199	247	115	109	322	207	177	169	182	214	175	167	203	246	116	111	48.4864	2021.19	27449.7
193	250	115	110	314	209	177	169	169	219	175	167	197	248	116	111	42.3449	2011.38	25849.7
183	253	116	110	314	209	177	169	169	219	175	167	190	251	116	111	49.8629	2011.38	25319.8
177	254	117	111	306	212	177	169	155	224	175	167	182	253	117	112	29.3758	2010.32	20754.4
171	256	117	111	296	216	177	169	155	224	175	167	174	255	118	112	29.748	2036.84	20957.8
164	258	118	112	296	216	177	169	155	224	175	167	167	258	118	112	34.6119	2036.84	23186
157	261	118	112	287	219	177	169	139	232	175	167	159	260	119	113	26.215	2012.47	18953.4
157	261	118	112	276	223	177	169	139	232	175	167	155	261	119	113	26.215	2074.31	18953.4
150	263	119	113	276	223	177	169	123	241	175	167	150	263	119	113	20.4106	2075.29	14571.5
140	267	119	114	267	226	177	169	123	241	175	167	143	265	120	114	28.3876	2010.08	13710.3
131	270	120	115	267	226	177	169	123	241	175	167	135	268	120	115	21.8032	2010.08	15779.3
131	270	120	115	267	226	177	169	108	250	175	167	130	270	121	115	17.8268	2010.28	12025.2
124	272	120	115	256	218	177	169	108	250	175	167	124	272	121	116	18.2352	3009.94	12424.4
120	272	120	115	256	218	177	169	99	252	175	167	119	273	121	116	27.3648	3009.99	11633.2
117	271	121	116	251	208	177	169	99	252	175	167	115	273	121	116	25.7527	3009.98	9655.72
117	271	121	116	252	198	177	169	99	252	175	167	113	273	122	117	25.7527	3009.99	9655.72
115	270	122	116	252	198	177	169	90	257	175	167	112	272	122	117	24.7735	3010	8466.77
113	267	124	118	254	189	177	169	90	257	175	167	111	270	123	118	23.2886	3010	6650.76
113	267	124	118	254	189	177	169	90	257	175	167	111	268	124	118	23.2886	3010	6650.76
112	265	125	120	261	179	177	169	89	254	175	167	111	266	125	119	20.8526	3010	3854.78
112	265	125	120	271	168	177	169	89	254	175	167	111	265	126	120	20.8526	3010	3854.78
113	263	127	121	271	168	177	169	89	254	175	167	111	263	127	121	21.1735	3010	2993.22
116	258	129	123	281	158	177	168	91	250	175	167	113	260	128	123	20.8746	3010	1845.17
117	255	130	124	293	147	176	168	91	250	175	167	116	256	130	124	11.512	3009.99	1598.24
117	255	130	124	293	147	176	168	91	250	175	167	117	254	130	124	11.512	3009.99	1598.24
117	254	130	124	302	140	176	168	88	246	175	167	118	253	131	125	10.6757	2926.01	1254.68
119	251	131	125	313	130	176	168	88	246	175	167	120	251	131	125	11.0288	2986.58	1409.2
121	249	131	124	323	122	176	168	88	241	175	167	121	249	131	125	10.6702	2215.15	1333.96
121	249	131	124	332	115	176	168	88	241	175	167	122	248	131	125	10.6702	2014.39	1333.96
122	246	132	126	339	110	176	168	88	241	175	167	123	246	132	126	10.5252	2013.32	1104.39
121	243	133	127	339	110	176	168	90	236	175	167	123	243	133	127	10.3595	2013.32	614.164
121	240	134	128	344	104	176	168	90	236	175	167	123	241	134	128	10.2717	2017.26	513.769
120	238	135	129	351	98	176	168	92	232	175	167	122	238	135	129	10.1765	2010.45	375.433
121	235	135	129	356	92	176	168	92	232	175	167	122	235	136	130	10.2007	2011.15	409.997
124	230	135	129	361	87	176	168	95	227	175	167	123	231	136	130	10.1897	2012.79	399.251
125	229	135	129	365	82	176	168	95	227	175	167	125	229	136	130	10.2583	2024.93	452.336
125	228	135	129	368	78	176	168	95	227	175	167	126	227	136	130	10.2436	2032.36	515.521
127	226	135	129	371	75	176	168	99	221	175	167	127	225	135	129	10.1959	2059.67	424.381
127	226	135	129	374	72	176	168	99	221	175	167	128	224	135	129	10.216	2047.51	447.172
128	225	135	129	377	69	176	168	103	217	175	167	129	223	135	129	10.1668	2015.75	367.016
131	222	134	128	380	65	176	168	103	217	175	167	132	222	135	129	13.1197	2010.41	444.702
134	219	136	130	384	61	176	168	109	212	175	167	134	219	135	129	12.5454	2010.14	261.68
136	215	137	131	388	56	176	168	109	212	175	167	137	216	136	130	10.7321	2010.1	257.225
138	211	137	131	394	34	195	185	109	212	175	167	139	212	137	131	10.1307	3010	283.068
138	211	137	131	397	35	189	180	115	205	175	167	140	211	138	132	10.0788	3010	170.96
140	208	138	132	400	33	186	177	115	205	175	167	141	208	138	132	10.0882	2988.25	186.711
142	203	139	133	403	31	183	174	115	205	175	167	143	205	139	133	11.127	2374.58	192.823
144	199	140	133	403	18	202	190	121	197	175	167	144	201	140	134	10.0487	3010	111.703
147	195	141	134	407	14	198	187	121	197	175	167	146	197	141	134	10.0579	3009.22	131.274
147	195	141	134	412	13	193	183	128	188	175	167	148	195	141	134	10.031	3009.99	72.9224
150	190	141	134	416	11	188	178	128	188	175	167	150	191	142	135	10.3285	3003.36	88.8942
151	188	141	134	419	9	184	175	128	188	175	167	151	188	142	135	10.3249	2698.75	104.561
151	187	141	134	421	8	181	172	135	177	175	167	153	186	142	135	18.6523	2155.44	65.2569
151	186	141	134	423	6	179	170	135	177	175	167	154	185	142	134	12.8246	2023.37	68.1418
152	184	141	134	425	5	177	169	138	171	175	167	154	183	141	134	10.0332	2010.41	65.6385
154	181	142	135	429	2	176	168	138	171	175	167	155	181	142	135	11.521	2010.2	49.7417
157	178	143	136	428	0	188	178	143	164	175	167	157	179	143	135	10.2271	3010	39.6431
159	175	144	136	432	-2	185	174	143	164	175	167	159	176	143	136	10.0141	2951.23	36.1547
161	173	144	137	436	-3	183	170	147	159	175	167	161	173	144	137	10.0153	2432.94	33.2714
163	171	144	137	439	-4	181	167	147	159	175	167	163	171	144	137	10.0145	2066.93	32.6425
166	169	144	137	443	-4	179	163	147	159	175	167	166	169	144	137	10.0748	2026.1	34.3974
170	165	144	137	447	-4	178	158	152	155	175	167	169	166	144	137	10.5613	2029.25	34.7022
174	161	144	137	447	-4	178	158	152	155	175	167	172	163	144	137	10.0689	2029.25	40.8525
177	158	144	137	451	-3	177	153	159	148	175	167	177	159	144	137	10.0136	2034.11	35.5036
180	156	144	137	456	-3	176	148	159	148	175	167	180	157	144	137	10.0376	2026.41	38.9055
182	153	144	138	460	-3	176	144	165	143	175	167	183	154	144	137	10.1147	2011.48	28.7894
186	149	144	138	459	-2	179	150	165	143	175	167	186	151	144	138	10.9518	3010	35.4046
189	147	144	137	464	-2	176	144	173	137	175	167	189	148	144	137	10.0598	2871.13	33.0405
191	145	144	137	468	-1	174	138	173	137	175	167	192	145	144	137	10.0497	2278.75	36.5504
192	144	144	137	468	-1	174	138	179	132	175	167	194	143	144	137	10.4771	2278.75	34.9939
193	144	143	137	472	-1	171	133	179	132	175	167	195	142	144	137	11.8826	2015.59	35.7497
193	143	143	136	474	-1	169	130	182	129	175	167	196	142	144	136	10.6221	2011.54	36.9497
193	143	143	136	475	0	168	128	182	129	175	167	196	142	144	136	10.6221	2015.14	36.9497
192	144	143	136	476	0	167	127	182	129	175	167	196	142	143	136	10.3303	2026.22	37.2945
193	144	143	136	476	0	167	127	183	128	175	167	196	142	143	136	10.0313	2026.22	37.9132
196	141	143	136	476	0	166	126	183	128	175	167	197	142	143	136	14.3801	2038.8	36.4716
201	137	142	135	480	0	162	122	186	125	175	167	200	140	143	136	20.0129	2031.2	48.9281
201	137	142	135	480	0	162	122	186	125	175	167	202	138	143	135	20.0129	2031.2	48.9281
205	133	143	135	483	0	158	118	193	119	175	167	206	134	142	135	13.2619	2039.79	44.5791
209	129	143	136	486	0	154	115	193	119	175	167	209	131	143	135	10.1626	2011.63	42.0405
213	126	143	136	489	0	151	112	193	119	175	167	213	128	143	136	10.0214	2010.41	43.8289
216	124	143	136	492	0	148	109	198	114	175	167	216	125	143	136	10.0165	2010.17	38.9333
219	121	143	136	492	0	148	109	198	114	175	167	219	122	143	136	10.0164	2010.17	42.2803
222	118	144	137	495	0	145	106	204	108	175	167	222	119	144	136	10.0149	2010.16	36.5058
222	118	144	137	497	0	142	104	204	108	175	167	224	118	144	136	10.0149	2010.06	36.5058
224	116	144	137	499	0	140	102	209	104	175	167	226	116	144	137	10.0424	2011.09	34.9086
226	115	144	137	499	0	140	102	209	104	175	167	227	115	144	137	10.0578	2011.09	35.4214
227	114	144	137	500	0	139	101	212	102	175	167	229	114	144	136	10.3102	2015.86	34.9302
228	114	144	137	501	0	138	100	212	102	175	167	230	113	144	136	10.1288	2024.2	35.1939
229	113	144	137	501	0	138	100	212	102	175	167	230	113	144	136	10.0465	2028.71	35.5993
229	113	144	137	501	0	138	101	214	101	175	167	231	112	144	136	10.0401	2026	35.7696
231	112	144	137	501	0	138	101	214	101	175	167	232	112	144	136	10.0141	2026	36.0864
232	112	144	137	501	0	138	101	216	102	175	167	233	112	143	136	10.016	2020.23	36.1683
233	112	144	137	501	0	138	101	216	102	175	167	234	112	143	136	10.0129	2015.49	36.6902
235	111	143	136	500	0	139	102	217	102	175	167	235	112	143	136	10.0135	2012.7	37.383
237	111	142	135	500	0	139	102	217	102	175	167	237	112	143	136	10.31	2010.89	51.8459
241	109	141	134	500	0	139	102	219	102	175	167	240	111	142	135	13.9547	2010.89	71.5064
245	105	141	134	501	0	138	102	219	102	175	167	243	109	141	134	17.7158	2010.26	106.864
245	105	141	134	504	0	135	100	219	102	175	167	246	107	141	133	17.7158	2046.6	106.864
250	103	140	133	504	0	135	100	225	98	175	167	249	104	140	133	10.5617	2046.6	105.034
261	100	140	133	507	0	132	99	225	98	175	167	257	101	140	133	10.4684	2019.97	214.174
261	100	140	133	511	0	127	99	234	94	175	167	262	100	140	133	10.4217	2058.05	113.66
265	100	140	133	515	0	124	100	234	94	175	167	265	99	140	133	10.3296	2025.47	129.561
269	100	140	133	515	0	124	100	243	92	175	167	270	99	140	133	10.0655	2025.47	100.298
274	99	139	132	518	0	120	101	243	92	175	167	274	99	139	132	10.1571	2012.22	152.969
278	100	138	132	522	0	117	103	243	92	175	167	278	99	138	132	10.1082	2018.46	229.901
282	100	137	131	525	0	114	105	250	90	175	167	282	99	138	131	10.106	2014.05	196.847
282	100	137	131	525	0	114	105	250	90	175	167	284	99	137	131	10.106	2014.05	196.847
286	100	137	131	528	0	110	108	250	90	175	167	287	99	137	131	10.1168	2012.62	254.67
291	100	137	131	532	0	106	111	260	89	175	167	291	100	137	131	10.4313	2023.82	208.889
297	100	137	131	536	0	102	114	260	89	175	167	296	100	137	131	10.1771	2015.02	286.215
297	100	137	131	536	0	102	114	271	89	175	167	299	100	137	131	10.1229	2015.02	168.966
303	100	137	131	540	0	98	118	271	89	175	167	303	100	137	131	10.0991	2011.7	204.693
309	100	137	131	544	0	94	121	271	89	175	167	308	100	137	131	10.1717	2012.36	289.424
313	101	137	131	547	0	91	124	282	89	175	167	313	100	137	131	10.1182	2010.22	193.244
313	101	137	131	547	0	91	124	282	89	175	167	316	100	137	131	10.1182	2010.22	193.244
316	101	137	131	550	0	89	126	282	89	175	167	318	100	137	131	11.7912	2010.81	214.698
320	101	137	131	553	0	86	128	291	89	175	167	321	100	137	131	10.0768	2010.19	174.315
320	101	137	131	555	0	83	131	291	89	175	167	322	100	137	131	10.0768	2010.17	174.315
330	101	137	131	558	0	81	133	301	90	175	167	328	101	137	132	10.1055	2010.25	175.444
330	101	137	131	560	0	78	135	301	90	175	167	331	101	137	132	10.1055	2010.13	175.444
334	102	136	130	563	0	76	137	301	90	175	167	334	101	137	131	13.1822	2010.22	282.04
338	102	135	129	565	0	74	139	309	92	175	167	338	101	136	130	10.1487	2010.24	315.42
341	102	135	129	565	0	74	139	309	92	175	167	342	102	135	129	10.2557	2010.24	407.723
343	103	136	130	566	0	73	141	316	93	175	167	345	102	135	129	13.6364	2012.53	264.84
344	105	136	130	566	0	73	144	316	93	175	167	347	103	135	129	15.9368	2020.99	208.47
344	105	136	130	566	0	73	149	320	95	175	167	347	104	135	130	15.9341	2101.96	202.923
344	108	137	131	564	0	74	154	320	95	175	167	347	106	136	130	18.0905	2237.7	160.896
343	113	137	131	563	0	76	160	320	95	175	167	347	109	136	131	19.9355	2106.95	138.129
343	118	138	132	561	0	78	165	321	101	175	167	346	115	137	132	14.3023	2063.79	132.929
342	123	138	132	561	0	78	165	321	101	175	167	344	120	137	132	10.8997	2063.79	133.125
342	123	138	132	559	2	80	169	321	101	175	167	344	123	138	132	10.8997	2071.6	133.125
341	128	136	130	555	7	84	171	320	110	175	167	343	127	137	132	14.7935	2907.06	178.525
338	134	135	129	551	14	88	173	320	110	175	167	341	132	136	131	19.5939	2861.89	243.874
335	140	135	129	545	20	94	174	317	121	175	167	338	137	135	130	17.5368	2838.06	277.077
332	146	133	127	540	26	99	174	317	121	175	167	335	144	134	128	10.304	2391.65	429.876
332	146	133	127	540	26	99	174	317	121	175	167	333	147	133	128	10.304	2391.65	429.876
329	150	133	127	535	32	104	174	312	131	175	167	330	150	133	127	10.5373	2117.08	495.733
323	154	132	126	528	37	110	174	312	131	175	167	326	154	132	126	13.1682	2262.07	640.648
319	156	132	126	522	42	117	173	312	131	175	167	322	157	132	126	11.0424	2055.15	837.629
315	159	132	126	517	46	122	172	303	139	175	167	317	159	131	126	10.4034	2013.84	664.682
312	160	132	126	517	46	122	172	303	139	175	167	314	161	131	126	11.5689	2013.84	721.302
312	160	132	126	513	49	126	172	293	146	175	167	312	162	132	126	11.5234	2018.16	622.921
310	161	132	126	509	52	130	171	293	146	175	167	310	162	132	126	10.9578	2013.02	603.524
309	162	132	126	507	54	132	170	293	146	175	167	309	163	132	126	11.5913	2049.68	579.929
309	163	132	126	505	56	133	170	287	151	175	167	309	163	132	126	12.9512	2172.33	589.871
310	163	132	126	505	56	134	169	287	151	175	167	309	163	132	127	11.866	2364.36	576.118
310	163	132	126	505	56	134	169	287	151	175	167	309	163	132	127	10.6897	2364.36	571.292
309	163	132	126	505	56	134	169	284	153	175	167	310	163	133	127	10.278	2229.65	601.746
303	167	133	127	502	58	137	169	284	153	175	167	308	164	133	127	20.2408	2010.21	530.157
303	167	133	127	498	60	141	169	279	156	175	167	306	165	133	127	20.2615	2012.95	573.213
297	170	133	127	494	63	144	168	279	156	175	167	302	168	133	127	18.9498	2010.55	520.081
294	174	133	127	491	66	147	168	279	156	175	167	297	172	133	127	10.252	2010.15	522.068
292	176	133	127	491	66	147	168	272	161	175	167	294	175	133	127	10.2431	2010.15	508.75
290	178	133	127	489	68	150	168	272	161	175	167	291	177	133	127	10.2861	2010.16	501.626
290	179	133	127	487	71	152	168	267	166	175	167	289	179	133	127	11.1268	2010.5	526.072
290	179	133	127	486	72	153	168	267	166	175	167	289	180	133	127	11.1268	2011.9	526.072
290	180	133	127	486	73	153	168	267	166	175	167	289	181	133	127	11.9182	2018.59	522.401
